[
        {
            "id": 1,
            "groupCode": "OS",
            "itemValue": "Window7",
            "itemName": "Window 7"
        },
        {
            "id": 2,
            "groupCode": "OS",
            "itemValue": "Window10",
            "itemName": "Window 10"
        },
        {
            "id": 3,
            "groupCode": "OS",
            "itemValue": "Mac OS",
            "itemName": "MacOS"
        },
        {
            "id": 4,
            "groupCode": "OS",
            "itemValue": "Window Server 2012",
            "itemName": "WindowServer2012"
        },
        {
            "id": 5,
            "groupCode": "BROWSER",
            "itemValue": "ie",
            "itemName": "Internet Explorer 11"
        },
        {
            "id": 6,
            "groupCode": "BROWSER",
            "itemValue": "edge",
            "itemName": "Microsoft Edge"
        },
        {
            "id": 7,
            "groupCode": "BROWSER",
            "itemValue": "firefox",
            "itemName": "Mozilla Firefox"
        },
        {
            "id": 8,
            "groupCode": "DEVICE",
            "itemValue": "",
            "itemName": "Iphone 6,7,8"
        },
        {
            "id": 9,
            "groupCode": "LOCATION",
            "itemValue": "Japan, Tokyo",
            "itemName": "Japan, Tokyo"
        },
        {
            "id": 10,
            "groupCode": "LOCATION",
            "itemValue": "Singapore",
            "itemName": "Singapore"
        },
        {
            "id": 11,
            "groupCode": "LOCATION",
            "itemValue": "VietNam",
            "itemName": "VietNam"
        },
        {
            "id": 12,
            "groupCode": "DEVICE",
            "itemValue": "375,667",
            "itemName": "IPhone 6,7,8_Vertical"
        },
        {
            "id": 13,
            "groupCode": "DEVICE",
            "itemValue": "667,375",
            "itemName": "IPhone6,7,8_horizontal"
        },
        {
            "id": 14,
            "groupCode": "DEVICE",
            "itemValue": "414,736",
            "itemName": "Iphone 6,7,8 Plus_Vertical"
        },
        {
            "id": 15,
            "groupCode": "DEVICE",
            "itemValue": "736,414",
            "itemName": "Iphone 6,7,8 Plus_horizontal"
        },
        {
            "id": 16,
            "groupCode": "RESOLUTION",
            "itemValue": "1440,1200",
            "itemName": "1440x1200"
        },
        {
            "id": 17,
            "groupCode": "RESOLUTION",
            "itemValue": "1920,1080",
            "itemName": "1920x1080"
        },
        {
            "id": 18,
            "groupCode": "DEVICE",
            "itemValue": "412,732",
            "itemName": "Google Nexus 6_Vertical"
        },
        {
            "id": 19,
            "groupCode": "DEVICE",
            "itemValue": "1024,1366",
            "itemName": "iPad Pro_Vertical"
        },
        {
            "id": 20,
            "groupCode": "DEVICE",
            "itemValue": "768,1024",
            "itemName": "iPad_Vertical"
        },
        {
            "id": 21,
            "groupCode": "DEVICE",
            "itemValue": "768,1024",
            "itemName": "iPad Mini_Vertical"
        },
        {
            "id": 22,
            "groupCode": "DEVICE",
            "itemValue": "320,480",
            "itemName": "Iphone 4_Vertical"
        },
        {
            "id": 23,
            "groupCode": "DEVICE",
            "itemValue": "320,568",
            "itemName": "Iphone 5/SE_Vertical"
        },
        {
            "id": 24,
            "groupCode": "DEVICE",
            "itemValue": "414,736",
            "itemName": "Iphone 6,7,8 Plus_Vertical"
        },
        {
            "id": 25,
            "groupCode": "DEVICE",
            "itemValue": "375,812",
            "itemName": "Iphone X_Vertical"
        },
        {
            "id": 26,
            "groupCode": "DEVICE",
            "itemValue": "360,640",
            "itemName": "Galaxy S III_Vertical"
        },
        {
            "id": 27,
            "groupCode": "DEVICE",
            "itemValue": "360,640",
            "itemName": "Galaxy S5_Vertical"
        },
        {
            "id": 28,
            "groupCode": "DEVICE",
            "itemValue": "320,533",
            "itemName": "Nokia Lumia 520_Vertical"
        },
        {
            "id": 29,
            "groupCode": "DEVICE",
            "itemValue": "360,640",
            "itemName": "Microsoft Lumia 950_Vertical"
        },
        {
            "id": 30,
            "groupCode": "DEVICE",
            "itemValue": "360,640",
            "itemName": "Google Nexus 5_Vertical"
        },
        {
            "id": 31,
            "groupCode": "DEVICE",
            "itemValue": "411,731",
            "itemName": "Pixel 2_Vertical"
        },
        {
            "id": 32,
            "groupCode": "DEVICE",
            "itemValue": "411,823",
            "itemName": "Pixel 2 XL_Vertical"
        },
        {
            "id": 33,
            "groupCode": "DEVICE",
            "itemValue": "732,412",
            "itemName": "Google Nexus 6_horizontal"
        },
        {
            "id": 34,
            "groupCode": "DEVICE",
            "itemValue": "1024,768",
            "itemName": "iPad Mini_horizontal"
        },
        {
            "id": 35,
            "groupCode": "DEVICE",
            "itemValue": "480,320",
            "itemName": "Iphone 4_horizontal"
        },
        {
            "id": 36,
            "groupCode": "DEVICE",
            "itemValue": "568,320",
            "itemName": "Iphone 5/SE_horizontal"
        },
        {
            "id": 37,
            "groupCode": "DEVICE",
            "itemValue": "640,360",
            "itemName": "Galaxy S III_horizontal"
        },
        {
            "id": 38,
            "groupCode": "DEVICE",
            "itemValue": "640,360",
            "itemName": "Galaxy S5_horizontal"
        },
        {
            "id": 39,
            "groupCode": "DEVICE",
            "itemValue": "533,320",
            "itemName": "Nokia Lumia 520_horizonltal"
        },
        {
            "id": 40,
            "groupCode": "DEVICE",
            "itemValue": "640,360",
            "itemName": "Microsoft Lumia 950_horizontal"
        },
        {
            "id": 41,
            "groupCode": "DEVICE",
            "itemValue": "731,411",
            "itemName": "Pixel 2_horizontal"
        },
        {
            "id": 42,
            "groupCode": "DEVICE",
            "itemValue": "823,411",
            "itemName": "Pixel 2 XL_horizontal"
        },
        {
            "id": 43,
            "groupCode": "DEVICE",
            "itemValue": "640,360",
            "itemName": "Google Nexus 5_horizontal"
        },
        {
            "id": 44,
            "groupCode": "DEVICE",
            "itemValue": "1366,1024",
            "itemName": "iPad Pro_horizontal"
        },
        {
            "id": 45,
            "groupCode": "DEVICE",
            "itemValue": "1024,768",
            "itemName": "iPad_horizontal"
        },
        {
            "id": 46,
            "groupCode": "DEVICE",
            "itemValue": "812,375",
            "itemName": "Iphone X_horizontal"
        },
        {
            "id": 47,
            "groupCode": "DEVICE",
            "itemValue": "736,414",
            "itemName": "Iphone 6,7,8 Plus_horizontal"
        },
        {
            "id": 48,
            "groupCode": "BROWSER",
            "itemValue": "chrome",
            "itemName": "Google Chrome"
        },
        {
            "id": 3201,
            "groupCode": "BROWSER",
            "itemValue": "safari",
            "itemName": "Safari"
        }
]