# Created at 2021-04-25T02:18:57.607
System.exit() or native command error interrupted process checker.
java.lang.IllegalStateException: error [STOPPED] to read process 13124
	at org.apache.maven.surefire.booter.PpidChecker.checkProcessInfo(PpidChecker.java:145)
	at org.apache.maven.surefire.booter.PpidChecker.isProcessAlive(PpidChecker.java:116)
	at org.apache.maven.surefire.booter.ForkedBooter$2.run(ForkedBooter.java:214)
	at java.util.concurrent.Executors$RunnableAdapter.call(Executors.java:511)
	at java.util.concurrent.FutureTask.runAndReset(FutureTask.java:308)
	at java.util.concurrent.ScheduledThreadPoolExecutor$ScheduledFutureTask.access$301(ScheduledThreadPoolExecutor.java:180)
	at java.util.concurrent.ScheduledThreadPoolExecutor$ScheduledFutureTask.run(ScheduledThreadPoolExecutor.java:294)
	at java.util.concurrent.ThreadPoolExecutor.runWorker(ThreadPoolExecutor.java:1149)
	at java.util.concurrent.ThreadPoolExecutor$Worker.run(ThreadPoolExecutor.java:624)
	at java.lang.Thread.run(Thread.java:748)


