-------------------------------------------------------------------------------
Test set: io.bottest.ApplicationTests
-------------------------------------------------------------------------------
Tests run: 1, Failures: 0, Errors: 0, Skipped: 0, Time elapsed: 36.561 s - in io.bottest.ApplicationTests
